dump.vcd
$date
    May  7, 2024  11:43:33
$end
$version
    TOOL:	xmsim	23.09-s001
$end
$timescale
    1 ns
$end

$scope module tb_ram $end
$var reg       1 !    clk $end

$scope module ram_interface_ins $end
$var wire      1 "    clk  $end
$var parameter 32 #    D_WIDTH $end
$var parameter 32 $    A_WIDTH $end
$var parameter 32 %    A_MAX $end
$var reg       1 &    rst $end
$var reg       4 '    address [3:0] $end
$var reg      16 (    data_write [15:0] $end
$var reg       1 )    write_enable $end
$var reg      16 *    data_read [15:0] $end
$upscope $end


$scope module RAM $end
$var parameter 32 +    D_WIDTH $end
$var parameter 32 ,    A_WIDTH $end
$var parameter 32 -    A_MAX $end
$var wire      1 "    clk  $end
$var wire      1 .    rst  $end
$var wire      4 /    address [3:0] $end
$var wire     16 0    data_write [15:0] $end
$var wire      1 1    write_enable  $end
$var reg      16 2    data_read [15:0] $end
$var reg      16 3    memory[15] [15:0] $end
$var reg      16 4    memory[14] [15:0] $end
$var reg      16 5    memory[13] [15:0] $end
$var reg      16 6    memory[12] [15:0] $end
$var reg      16 7    memory[11] [15:0] $end
$var reg      16 8    memory[10] [15:0] $end
$var reg      16 9    memory[9] [15:0] $end
$var reg      16 :    memory[8] [15:0] $end
$var reg      16 ;    memory[7] [15:0] $end
$var reg      16 <    memory[6] [15:0] $end
$var reg      16 =    memory[5] [15:0] $end
$var reg      16 >    memory[4] [15:0] $end
$var reg      16 ?    memory[3] [15:0] $end
$var reg      16 @    memory[2] [15:0] $end
$var reg      16 A    memory[1] [15:0] $end
$var reg      16 B    memory[0] [15:0] $end
$upscope $end

$upscope $end

$enddefinitions $end
$dumpvars
b10000 -
b100 ,
b10000 +
b10000 %
b100 $
b10000 #
0!
0"
x&
bx '
bx (
x)
bx *
x.
bx /
bx 0
x1
bx 2
bx 3
bx 4
bx 5
bx 6
bx 7
bx 8
bx 9
bx :
bx ;
bx <
bx =
bx >
bx ?
bx @
bx A
bx B
$end
#5
1!
1"
0&
b1000011001101011 (
1)
b111 '
b111 /
11
b1000011001101011 0
0.
#10
0!
0"
#15
1!
1"
b1000011001101011 ;
b1010111110010000 (
0)
b1101 '
b1101 /
01
b1010111110010000 0
#20
0!
0"
#25
1!
1"
b1010111100000100 (
1)
b10 '
b10 /
11
b1010111100000100 0
#30
0!
0"
#35
1!
1"
b1010111100000100 @
b1010011010010100 (
b1001 '
b1001 /
b1010011010010100 0
#40
0!
0"
#45
1!
1"
b1010011010010100 9
b1000111101110 (
b1011 '
b1011 /
b1000111101110 0
#50
0!
0"
#55
1!
1"
b1000111101110 7
b1111100000110010 (
b111 '
b111 /
b1111100000110010 0
#60
0!
0"
#65
1!
1"
b1111100000110010 ;
b101010100011010 (
0)
b100 '
b100 /
01
b101010100011010 0
#70
0!
0"
#75
1!
1"
b1111110011001101 (
1)
b1001 '
b1001 /
11
b1111110011001101 0
#80
0!
0"
#85
1!
1"
b1111110011001101 9
b1000100101000011 (
0)
b111 '
b111 /
01
b1000100101000011 0
#90
0!
0"
#95
1!
1"
b1111100000110010 2
b1111100000110010 *
b10010111101 (
1)
b11 '
b11 /
11
b10010111101 0
#100
0!
0"
#105
1!
1"
b10010111101 ?
b110100101011011 (
0)
b0 '
b0 /
01
b110100101011011 0
#110
0!
0"
#115
1!
1"
bx 2
bx *
b1110111000000100 (
b101 '
b101 /
b1110111000000100 0
#120
0!
0"
#125
1!
1"
b1100110100100100 (
1)
b1100 '
b1100 /
11
b1100110100100100 0
#130
0!
0"
#135
1!
1"
b1100110100100100 6
b1000100001000110 (
0)
b1110 '
b1110 /
01
b1000100001000110 0
#140
0!
0"
#145
1!
1"
b1000000101001111 (
1)
b111 '
b111 /
11
b1000000101001111 0
#150
0!
0"
#155
1!
1"
b1000000101001111 ;
b1100100111001011 (
0)
b1111 '
b1111 /
01
b1100100111001011 0
#160
0!
0"
#165
1!
1"
b1101100011001000 (
1)
b1 '
b1 /
11
b1101100011001000 0
#170
0!
0"
#175
1!
1"
b1101100011001000 A
b1111111010000 (
0)
b1011 '
b1011 /
01
b1111111010000 0
#180
0!
0"
#185
1!
1"
b1000111101110 2
b1000111101110 *
b1110111010111011 (
1)
b101 '
b101 /
11
b1110111010111011 0
#190
0!
0"
#195
1!
1"
b1110111010111011 =
b1100011011100100 (
0)
01
b1100011011100100 0
#200
0!
0"
#205
1!
1"
b1110111010111011 2
b1110111010111011 *
b1001010100100001 (
1)
b110 '
b110 /
11
b1001010100100001 0
#210
0!
0"
#215
1!
1"
b1001010100100001 <
b11100101001001 (
0)
b1110 '
b1110 /
01
b11100101001001 0
#220
0!
0"
#225
1!
1"
bx 2
bx *
b1001110010100001 (
1)
b1000 '
b1000 /
11
b1001110010100001 0
#230
0!
0"
#235
1!
1"
b1001110010100001 :
b101100101110011 (
0)
b100 '
b100 /
01
b101100101110011 0
#240
0!
0"
#245
1!
1"
b101011111111001 (
1)
b10 '
b10 /
11
b101011111111001 0
#250
0!
0"
#255
1!
1"
b101011111111001 @
b1100010101010111 (
0)
b1 '
b1 /
01
b1100010101010111 0
#260
0!
0"
#265
1!
1"
b1101100011001000 2
b1101100011001000 *
b1111000101100001 (
1)
b1100 '
b1100 /
11
b1111000101100001 0
#270
0!
0"
#275
1!
1"
b1111000101100001 6
b100011001101000 (
0)
b1101 '
b1101 /
01
b100011001101000 0
#280
0!
0"
#285
1!
1"
bx 2
bx *
b10110101001010 (
1)
b1010 '
b1010 /
11
b10110101001010 0
#290
0!
0"
#295
1!
1"
b10110101001010 8
b1000011010100100 (
b1 '
b1 /
b1000011010100100 0
#300
0!
0"
#305
1!
1"
b1000011010100100 A
b1010001010110101 (
b100 '
b100 /
b1010001010110101 0
#310
0!
0"
#315
1!
1"
b1010001010110101 >
b1100000111000000 (
b1000 '
b1000 /
b1100000111000000 0
#320
0!
0"
#325
1!
1"
b1100000111000000 :
b10110100111011 (
0)
01
b10110100111011 0
#330
0!
0"
#335
1!
1"
b1100000111000000 2
b1100000111000000 *
b1001010001001110 (
1)
b0 '
b0 /
11
b1001010001001110 0
#340
0!
0"
#345
1!
1"
b1001010001001110 B
b101100001101 (
0)
b1101 '
b1101 /
01
b101100001101 0
#350
0!
0"
#355
1!
1"
bx 2
bx *
b1111000101001110 (
b1100 '
b1100 /
b1111000101001110 0
#360
0!
0"
#365
1!
1"
b1111000101100001 2
b1111000101100001 *
b1011101011100100 (
b1111 '
b1111 /
b1011101011100100 0
#370
0!
0"
#375
1!
1"
bx 2
bx *
b100101111111010 (
1)
b0 '
b0 /
11
b100101111111010 0
#380
0!
0"
#385
1!
1"
b100101111111010 B
b1010000000011011 (
0)
b1101 '
b1101 /
01
b1010000000011011 0
#390
0!
0"
#395
1!
1"
b1011001110001 (
1)
b101 '
b101 /
11
b1011001110001 0
#400
0!
0"
#405
1!
1"
b1011001110001 =
b1111000100010101 (
b1100 '
b1100 /
b1111000100010101 0
#410
0!
0"
#415
1!
1"
b1111000100010101 6
b110001001001 (
0)
b1111 '
b1111 /
01
b110001001001 0
#420
0!
0"
#425
1!
1"
b1110101110100000 (
b0 '
b0 /
b1110101110100000 0
#430
0!
0"
#435
1!
1"
b100101111111010 2
b100101111111010 *
b110100010111110 (
b1011 '
b1011 /
b110100010111110 0
#440
0!
0"
#445
1!
1"
b1000111101110 2
b1000111101110 *
b1000011110111001 (
1)
b100 '
b100 /
11
b1000011110111001 0
#450
0!
0"
#455
1!
1"
b1000011110111001 >
b1011101101110101 (
b1100 '
b1100 /
b1011101101110101 0
#460
0!
0"
#465
1!
1"
b1011101101110101 6
b1110111111010101 (
b110 '
b110 /
b1110111111010101 0
#470
0!
0"
#475
1!
1"
b1110111111010101 <
b1001100010000011 (
0)
b101 '
b101 /
01
b1001100010000011 0
#480
0!
0"
#485
1!
1"
b1011001110001 2
b1011001110001 *
b100101010011111 (
b1101 '
b1101 /
b100101010011111 0
#490
0!
0"
#495
1!
1"
bx 2
bx *
b1011111000110 (
b1100 '
b1100 /
b1011111000110 0
#500
0!
0"
#505
1!
1"
b1011101101110101 2
b1011101101110101 *
b1010100011110101 (
b1110 '
b1110 /
b1010100011110101 0
#510
0!
0"
#515
1!
1"
bx 2
bx *
b110110011010 (
b1111 '
b1111 /
b110110011010 0
#520
0!
0"
#525
1!
1"
b111110110000100 (
b1101 '
b1101 /
b111110110000100 0
#530
0!
0"
#535
1!
1"
b110001011001011 (
b1000 '
b1000 /
b110001011001011 0
#540
0!
0"
#545
1!
1"
b1100000111000000 2
b1100000111000000 *
b111100100110100 (
b111 '
b111 /
b111100100110100 0
#550
0!
0"
#555
1!
1"
b1000000101001111 2
b1000000101001111 *
b111011000100101 (
1)
b0 '
b0 /
11
b111011000100101 0
#560
0!
0"
#565
1!
1"
b111011000100101 B
b110011111111110 (
0)
b11 '
b11 /
01
b110011111111110 0
#570
0!
0"
#575
1!
1"
b10010111101 2
b10010111101 *
b100101011110010 (
b100 '
b100 /
b100101011110010 0
#580
0!
0"
#585
1!
1"
b1000011110111001 2
b1000011110111001 *
b1100011000111110 (
b1001 '
b1001 /
b1100011000111110 0
#590
0!
0"
#595
1!
1"
b1111110011001101 2
b1111110011001101 *
b1101100100111000 (
b1000 '
b1000 /
b1101100100111000 0
#600
0!
0"
#605
1!
1"
b1100000111000000 2
b1100000111000000 *
b1000111101100010 (
b1011 '
b1011 /
b1000111101100010 0
#610
0!
0"
#615
1!
1"
b1000111101110 2
b1000111101110 *
b10011010010 (
1)
b100 '
b100 /
11
b10011010010 0
#620
0!
0"
#625
1!
1"
b10011010010 >
b11001000101100 (
0)
b111 '
b111 /
01
b11001000101100 0
#630
0!
0"
#635
1!
1"
b1000000101001111 2
b1000000101001111 *
b1111111110101100 (
1)
b1111 '
b1111 /
11
b1111111110101100 0
#640
0!
0"
#645
1!
1"
b1111111110101100 3
b1111101000100111 (
b101 '
b101 /
b1111101000100111 0
#650
0!
0"
#655
1!
1"
b1111101000100111 =
b1111111100111000 (
b1001 '
b1001 /
b1111111100111000 0
#660
0!
0"
#665
1!
1"
b1111111100111000 9
b111101111000010 (
0)
b1111 '
b1111 /
01
b111101111000010 0
#670
0!
0"
#675
1!
1"
b1111111110101100 2
b1111111110101100 *
b1010011100 (
b10 '
b10 /
b1010011100 0
#680
0!
0"
#685
1!
1"
b101011111111001 2
b101011111111001 *
b1101110001 (
b1001 '
b1001 /
b1101110001 0
#690
0!
0"
#695
1!
1"
b1111111100111000 2
b1111111100111000 *
b1001010001001 (
1)
b1101 '
b1101 /
11
b1001010001001 0
#700
0!
0"
#705
1!
1"
b1001010001001 5
b1001011001010101 (
b1000 '
b1000 /
b1001011001010101 0
#710
0!
0"
#715
1!
1"
b1001011001010101 :
b1001100111001 (
b1001 '
b1001 /
b1001100111001 0
#720
0!
0"
#725
1!
1"
b1001100111001 9
b1101010000110111 (
b110 '
b110 /
b1101010000110111 0
#730
0!
0"
#735
1!
1"
b1101010000110111 <
b11010000010 (
0)
b101 '
b101 /
01
b11010000010 0
#740
0!
0"
#745
1!
1"
b1111101000100111 2
b1111101000100111 *
b1111100101000011 (
b110 '
b110 /
b1111100101000011 0
#750
0!
0"
#755
1!
1"
b1101010000110111 2
b1101010000110111 *
b111101111001000 (
b1000 '
b1000 /
b111101111001000 0
#760
0!
0"
#765
1!
1"
b1001011001010101 2
b1001011001010101 *
b1011100011010001 (
1)
b10 '
b10 /
11
b1011100011010001 0
#770
0!
0"
#775
1!
1"
b1011100011010001 @
b101110001010100 (
b1100 '
b1100 /
b101110001010100 0
#780
0!
0"
#785
1!
1"
b101110001010100 6
b11001111110011 (
b111 '
b111 /
b11001111110011 0
#790
0!
0"
#795
1!
1"
b11001111110011 ;
b1010001111100111 (
b1110 '
b1110 /
b1010001111100111 0
#800
0!
0"
#805
1!
1"
b1010001111100111 4
b1110101011010010 (
0)
b1101 '
b1101 /
01
b1110101011010010 0
#810
0!
0"
#815
1!
1"
b1001010001001 2
b1001010001001 *
b1110110000001111 (
b111 '
b111 /
b1110110000001111 0
#820
0!
0"
#825
1!
1"
b11001111110011 2
b11001111110011 *
b1001011000111011 (
1)
b1100 '
b1100 /
11
b1001011000111011 0
#830
0!
0"
#835
1!
1"
b1001011000111011 6
b1010010000001 (
b0 '
b0 /
b1010010000001 0
#840
0!
0"
#845
1!
1"
b1010010000001 B
b1110100001010000 (
0)
b1010 '
b1010 /
01
b1110100001010000 0
#850
0!
0"
#855
1!
1"
b10110101001010 2
b10110101001010 *
b1010001000001011 (
b11 '
b11 /
b1010001000001011 0
#860
0!
0"
#865
1!
1"
b10010111101 2
b10010111101 *
b1001011010100001 (
b1111 '
b1111 /
b1001011010100001 0
#870
0!
0"
#875
1!
1"
b1111111110101100 2
b1111111110101100 *
b1110001001101011 (
1)
b1000 '
b1000 /
11
b1110001001101011 0
#880
0!
0"
#885
1!
1"
b1110001001101011 :
b100011100111000 (
0)
01
b100011100111000 0
#890
0!
0"
#895
1!
1"
b1110001001101011 2
b1110001001101011 *
b1111110011100000 (
b10 '
b10 /
b1111110011100000 0
#900
0!
0"
#905
1!
1"
b1011100011010001 2
b1011100011010001 *
b11000111000010 (
b1100 '
b1100 /
b11000111000010 0
#910
0!
0"
#915
1!
1"
b1001011000111011 2
b1001011000111011 *
b1101111110010010 (
1)
11
b1101111110010010 0
#920
0!
0"
#925
1!
1"
b1101111110010010 6
b1101110100100000 (
0)
b100 '
b100 /
01
b1101110100100000 0
#930
0!
0"
#935
1!
1"
b10011010010 2
b10011010010 *
b1001101010000 (
b111 '
b111 /
b1001101010000 0
#940
0!
0"
#945
1!
1"
b11001111110011 2
b11001111110011 *
b110111001101101 (
1)
b1100 '
b1100 /
11
b110111001101101 0
#950
0!
0"
#955
1!
1"
b110111001101101 6
b1001000101010100 (
b100 '
b100 /
b1001000101010100 0
#960
0!
0"
#965
1!
1"
b1001000101010100 >
b1110111100111110 (
0)
b1010 '
b1010 /
01
b1110111100111110 0
#970
0!
0"
#975
1!
1"
b10110101001010 2
b10110101001010 *
b1111101001101101 (
1)
b110 '
b110 /
11
b1111101001101101 0
#980
0!
0"
#985
1!
1"
b1111101001101101 <
b11111110101011 (
0)
b1001 '
b1001 /
01
b11111110101011 0
#990
0!
0"
#995
1!
1"
b1001100111001 2
b1001100111001 *
b1001011101100110 (
1)
b1010 '
b1010 /
11
b1001011101100110 0
